HW2
…
Load and Examine the Dataset

london_marathon |>
  head(42)

# A tibble: 42 × 8
   Date        Year Applicants Accepted Starters Finishers Raised
   <date>     <dbl>      <dbl>    <dbl>    <dbl>     <dbl>  <dbl>
 1 1981-03-29  1981      20000     7747     7055      6255      0
 2 1982-05-09  1982      90000    18059    16350     15116      0
 3 1983-04-17  1983      60000    19735    16500     15793      0
 4 1984-05-13  1984      70000    21142    16992     15675      0
 5 1985-04-21  1985      83000    22274    17500     15873      0
 6 1986-04-20  1986      80000    25566    19261     18067      0
 7 1987-05-10  1987      80000    28364    21485     19586      0
 8 1988-04-17  1988      73000    29979    22469     20932      0
 9 1989-04-23  1989      72000    31772    24452     22701      0
10 1990-04-22  1990      73000    34882    26500     25013      0
# ℹ 32 more rows
# ℹ 1 more variable: `Official charity` <chr>

Describe and Visualize Correlations

correlate(london_marathon)

# A tibble: 30 × 3
   var1       var2       coef_corr
   <fct>      <fct>          <dbl>
 1 Applicants Year           0.591
 2 Accepted   Year           0.320
 3 Starters   Year           0.300
 4 Finishers  Year           0.332
 5 Raised     Year           0.652
 6 Year       Applicants     0.591
 7 Accepted   Applicants     0.350
 8 Starters   Applicants     0.368
 9 Finishers  Applicants     0.380
10 Raised     Applicants     0.624
# ℹ 20 more rows
…
